16 --- Wed Dec 15 12:24:40 2021

56 --- Wed Dec 15 12:25:27 2021

207 --- Wed Dec 15 12:26:41 2021

207 --- Thu Dec 16 13:11:00 2021

63 --- Thu Dec 16 14:27:42 2021

54 --- Thu Dec 16 15:07:15 2021

207 --- Thu Dec 16 15:19:16 2021

24 --- Fri Dec 17 12:25:12 2021

188 --- Fri Dec 17 12:26:27 2021

197 --- Fri Dec 17 12:32:55 2021

70 --- Fri Dec 17 12:40:06 2021

181 --- Fri Dec 17 13:30:49 2021

189 --- Fri Dec 17 13:37:16 2021

